0,102
0,104
0,106
0,108
0,110
0,112
0,114
0,116
0,118
0,120
0,122
0,124
0,126
0,128
0,130
0,132
0,134
0,136
12,131
12,133
12,135
12,137
12,139
12,141
12,143
12,145
12,146
12,148
12,150
12,152
12,154
12,156
12,158
12,160
12,161
12,163
12,165
12,167
50,150
50,151
50,153
50,154
50,156
50,157
50,159
50,160
50,162
50,163
50,165
50,166
50,168
50,169
50,171
50,172
50,174
50,175
50,177
50,178
84,162
84,163
84,165
84,166
84,167
84,168
84,169
84,170
84,172
84,173
84,174
84,175
84,176
84,177
84,179
84,180
84,181
84,182
84,183
84,184
112,171
112,172
112,173
112,174
112,175
112,176
112,176
112,177
112,178
112,179
112,180
112,181
112,182
112,183
112,184
112,184
112,185
112,186
112,187
112,188
133,178
133,178
133,179
133,180
133,180
133,181
133,182
133,182
133,183
133,184
133,184
133,185
133,186
133,186
133,187
133,188
133,188
133,189
133,190
133,190
148,184
148,184
148,185
148,185
148,186
148,186
148,187
148,187
148,188
148,189
148,189
148,190
148,190
148,191
148,191
148,192
148,192
148,193
148,193
148,194
148,194
161,188
161,188
161,188
161,189
161,189
161,190
161,190
161,190
161,191
161,191
161,192
161,192
161,192
161,193
161,193
161,193
161,194
161,194
161,195
161,195
171,190
171,191
171,191
171,191
171,191
171,192
171,192
171,192
171,193
171,193
171,193
171,194
171,194
171,194
171,194
171,195
171,195
171,195
171,196
171,196
177,193
177,193
177,194
177,194
177,194
177,194
177,194
177,195
177,195
177,195
177,195
177,196
177,196
177,196
177,196
177,197
177,197
177,197
177,197
177,197
183,195
183,195
183,195
183,195
183,195
183,195
183,196
183,196
183,196
183,196
183,196
183,196
183,197
183,197
183,197
183,197
183,197
183,197
183,198
183,198
186,197
186,197
186,197
186,197
186,198
186,198
186,198
186,198
186,198
186,198
186,198
186,199
186,199
186,199
186,199
186,199
186,199
186,199
186,199
186,200
191,197
191,197
191,197
191,197
191,197
191,197
191,197
191,197
191,197
191,198
191,198
191,198
191,198
191,198
191,198
191,198
191,198
191,198
191,198
191,198
192,199
192,199
192,199
192,199
192,199
192,199
192,199
192,199
192,199
192,199
192,199
192,199
192,199
192,200
192,200
192,200
192,200
192,200
192,200
192,200
195,198
195,198
195,198
195,198
195,198
195,198
195,198
195,198
195,198
195,199
195,199
195,199
195,199
195,199
195,199
195,199
195,199
195,199
195,199
195,199
196,199
196,199
196,199
196,199
196,199
196,199
196,199
196,199
196,199
196,199
196,199
196,200
196,200
196,200
196,200
196,200
196,200
196,200
196,200
196,200
197,199
197,199
197,199
197,199
197,199
197,199
197,199
197,199
197,199
197,199
197,199
197,199
197,199
197,199
197,199
197,199
197,199
197,199
197,199
197,199
198,199
198,199
198,199
198,200
198,200
198,200
198,200
198,200
198,200
198,200
198,200
198,200
198,200
198,200
198,200
198,200
198,200
198,200
198,200
198,200
198,200
198,200
198,200
198,200
198,200
198,200
198,200
198,200
198,200
198,200
198,200
198,200
198,200
198,200
198,200
198,200
198,200
198,200
198,200
198,200
199,199
199,199
199,199
199,199
199,199
199,199
199,199
199,199
199,199
199,199
199,199
199,199
199,199
199,199
199,199
199,199
199,199
199,199
199,199
199,199
200,199
200,199
200,199
200,199
200,199
200,199
200,199
200,199
200,199
200,199
200,199
200,199
200,199
200,199
200,199
200,199
200,199
200,199
200,199
200,199
200,199
200,199
200,199
200,199
200,199
200,199
200,199
200,199
200,199
200,199
200,199
200,199
200,199
200,199
200,199
200,199
200,199
200,199
200,199
200,199
199,199
199,199
199,199
199,199
199,199
199,199
199,199
199,200
199,200
199,200
199,200
199,200
199,200
199,200
199,200
199,200
199,200
199,200
199,200
199,200
200,200
200,200
200,200
200,200
200,200
200,200
200,200
200,200
200,200
200,200
200,200
200,200
200,200
200,200
200,200
200,200
200,200
200,200
200,200
200,200
201,200
201,200
201,200
201,200
201,200
201,200
201,200
201,200
201,200
201,200
201,200
201,200
201,199
201,199
201,199
201,199
201,199
201,199
201,199
201,199
200,199
200,199
200,199
200,199
200,199
200,199
200,199
200,199
200,199
200,199
200,199
200,199
200,199
200,199
200,199
200,199
200,199
200,199
200,199
200,199
200,199
200,199
200,199
200,199
200,199
200,199
200,199
200,199
200,199
200,199
200,199
200,199
200,199
200,199
200,199
200,199
200,199
200,199
200,199
200,199
201,199
201,199
201,199
201,199
201,199
201,199
201,199
201,199
201,199
201,199
201,199
201,199
201,199
201,199
201,199
201,199
201,199
201,199
201,199
201,199
200,199
200,199
200,199
200,199
200,199
200,199
200,199
200,199
200,199
200,199
200,199
200,199
200,199
200,199
200,199
200,199
200,199
200,199
200,199
200,199
201,199
201,199
201,199
201,199
201,199
201,199
201,199
201,199
201,199
201,199
201,199
201,199
201,199
201,199
201,199
201,199
201,199
201,199
201,199
201,199
200,199
200,199
200,199
200,199
200,199
200,199
200,199
200,199
200,199
200,199
200,199
200,199
200,199
200,199
200,199
200,199
200,199
200,199
200,199
200,199
200,199
200,199
200,199
200,199
200,199
200,199
200,199
200,199
200,199
200,199
200,199
200,199
200,199
200,199
200,199
200,199
200,199
200,199
200,199
200,199
201,199
201,199
201,199
201,199
201,199
201,199
201,199
201,199
201,199
201,199
201,199
201,199
201,199
201,199
201,199
201,199
201,199
201,199
201,199
201,199
200,199
200,199
200,199
200,199
200,199
200,199
200,199
200,199
200,199
200,199
200,199
200,199
200,199
200,199
200,199
200,199
200,199
200,199
200,199
200,199
201,199
201,199
201,199
201,199
201,199
201,199
201,199
201,199
201,199
201,199
201,199
201,199
201,199
201,199
201,199
201,199
201,199
201,199
201,199
201,199
200,199
200,199
200,199
200,199
200,199
200,199
200,199
200,199
200,199
200,199
200,199
200,199
200,199
200,199
200,199
200,199
200,199
200,199
200,199
200,199
200,199
200,199
200,199
200,199
200,199
200,199
200,199
200,199
200,199
200,199
200,199
200,199
200,199
200,199
200,199
200,199
200,199
200,199
200,199
200,199
201,199
201,199
201,199
201,199
201,199
201,199
201,199
201,199
201,199
201,199
201,199
201,199
201,198
201,198
201,198
201,198
201,198
201,198
201,198
201,198
200,198
200,198
200,198
200,198
200,198
200,198
200,198
200,198
200,198
200,198
200,198
200,198
200,198
200,198
200,198
200,198
200,198
200,198
200,198
200,198
201,198
201,198
201,198
201,198
201,198
201,198
201,198
201,198
201,198
201,198
201,198
201,198
201,198
201,198
201,198
201,198
201,198
201,198
201,198
201,198
200,198
200,198
200,198
200,198
200,198
200,198
200,198
200,198
200,198
200,198
200,198
200,198
200,198
200,198
200,198
200,198
200,198
200,198
200,198
200,198
200,198
200,198
200,198
200,198
200,198
200,198
200,198
200,198
200,198
200,198
200,198
200,198
200,198
200,198
200,198
200,198
200,198
200,198
200,198
200,198
200,198
200,198
200,198
200,198
200,198
200,198
200,198
200,198
200,198
200,198
200,198
200,198
200,198
200,198
200,198
200,198
200,198
200,198
200,198
200,198
201,198
201,198
201,198
201,198
201,198
201,198
201,198
201,198
201,198
201,198
201,198
201,198
201,198
201,198
201,198
201,198
201,198
201,198
201,198
201,198
200,198
200,198
200,198
200,198
200,198
200,198
200,198
200,198
200,198
200,198
200,198
200,198
200,198
200,198
200,198
200,198
200,198
200,198
200,198
200,198
200,198
200,198
200,198
200,198
200,198
200,198
200,198
200,198
200,198
200,198
200,198
200,198
200,198
200,198
200,198
200,198
200,198
200,198
200,198
200,198
200,198
200,198
200,198
200,198
200,198
200,198
200,198
200,198
200,198
200,198
200,198
200,198
200,198
200,198
200,198
200,198
200,198
200,198
200,198
200,198
200,198
200,198
200,198
200,198
200,198
200,198
200,198
200,198
200,198
200,198
200,198
200,198
200,198
200,198
200,198
200,198
200,198
200,198
200,198
200,198
200,198
200,198
200,198
200,198
200,198
200,198
200,198
200,198
200,198
200,198
200,198
200,198
200,198
200,198
200,198
200,198
200,198
200,198
200,198
200,198
200,198
200,198
200,198
200,198
200,198
200,198
200,198
200,198
200,198
200,198
200,198
200,198
200,198
200,198
200,198
200,198
200,198
200,198
200,198
200,198
200,198
200,106
200,104
200,103
200,101
200,99
200,97
200,95
200,94
200,92
200,90
200,88
200,86
200,85
200,83
200,81
200,79
200,77
200,76
200,74
200,72
196,72
196,71
196,69
196,67
196,65
196,63
196,62
196,60
196,58
196,56
196,55
196,53
196,51
196,49
196,48
196,46
196,44
196,42
196,41
196,39
186,42
186,41
186,39
186,37
186,36
186,34
186,32
186,31
186,29
186,27
186,26
186,24
186,22
186,21
186,19
186,17
186,16
186,14
186,12
186,11
174,15
174,14
174,12
174,10
174,9
174,7
174,6
174,4
174,3
174,1
174,0
174,0
174,0
174,0
174,0
174,0
174,0
174,0
174,0
174,0
160,0
160,0
160,0
160,0
160,0
160,0
160,0
160,0
160,0
160,0
160,0
160,0
160,0
160,0
160,0
160,0
160,0
160,0
160,0
160,0
147,0
147,0
147,0
147,0
147,0
147,0
147,0
147,0
147,0
147,0
147,0
147,0
147,0
147,0
147,0
147,0
147,0
147,0
147,0
147,0
135,0
135,0
135,0
135,0
135,0
135,0
135,0
135,0
135,0
135,0
135,0
135,0
135,0
135,0
135,0
135,0
135,0
135,0
135,0
135,0
123,0
123,0
123,0
123,0
123,0
123,0
123,0
123,0
123,0
123,0
123,0
123,0
123,0
123,0
123,0
123,0
123,0
123,0
123,0
123,0
112,0
112,0
112,0
112,0
112,0
112,0
112,0
112,0
112,0
112,0
112,0
112,0
112,0
112,0
112,0
112,0
112,0
112,0
112,0
112,0
102,0
102,0
102,0
102,0
102,0
102,0
102,0
102,0
102,0
102,0
102,0
102,0
102,0
102,0
102,0
102,0
102,0
102,0
102,0
102,0
94,0
94,0
94,0
94,0
94,0
94,0
94,0
94,0
94,0
94,0
94,0
94,0
94,0
94,0
94,0
94,0
94,0
94,0
94,0
94,0
85,0
85,0
85,0
85,0
85,0
85,0
85,0
85,0
85,0
85,0
85,0
85,0
85,0
85,0
85,0
85,0
85,0
85,0
85,0
85,0
78,0
78,0
78,0
78,0
78,0
78,0
78,0
78,0
78,0
78,0
78,0
78,0
78,0
78,0
78,0
78,0
78,0
78,0
78,0
78,0
71,0
71,0
71,0
71,0
71,0
71,0
71,0
71,0
71,0
71,0
71,0
71,0
71,0
71,0
71,0
71,0
71,0
71,0
71,0
71,0
65,0
65,0
65,0
65,0
65,0
65,0
65,0
65,0
65,0
65,0
65,0
65,0
65,0
65,0
65,0
65,0
65,0
65,0
65,0
65,0
60,0
60,0
60,0
60,0
60,0
60,0
60,0
60,0
60,0
60,0
60,0
60,0
60,0
60,0
60,0
60,0
60,0
60,0
60,0
60,0
54,0
54,0
54,0
54,0
54,0
54,0
54,0
54,0
54,0
54,0
54,0
54,0
54,0
54,0
54,0
54,0
54,0
54,0
54,0
54,0
49,0
49,0
49,0
49,0
49,0
49,0
49,0
49,0
49,0
49,0
49,0
49,0
49,0
49,0
49,0
49,0
49,0
49,0
49,0
49,0
45,0
45,0
45,0
45,0
45,0
45,0
45,0
45,0
45,0
45,0
45,0
45,0
45,0
45,0
45,0
45,0
45,0
45,0
45,0
45,0
41,0
41,0
41,0
41,0
41,0
41,0
41,0
41,0
41,0
41,0
41,0
41,0
41,0
41,0
41,0
41,0
41,0
41,0
41,0
41,0
37,0
37,0
37,0
37,0
37,0
37,0
37,0
37,0
37,0
37,0
37,0
37,0
37,0
37,0
37,0
37,0
37,0
37,0
37,0
37,0
34,0
34,0
34,0
34,0
34,0
34,0
34,0
34,0
34,0
34,0
34,0
34,0
34,0
34,0
34,0
34,0
34,0
34,0
34,0
34,0
31,0
31,0
31,0
31,0
31,0
31,0
31,0
31,0
31,0
31,0
31,0
31,0
31,0
31,0
31,0
31,0
31,0
31,0
31,0
31,0
28,0
28,0
28,0
28,0
28,0
28,0
28,0
28,0
28,0
28,0
28,0
28,0
28,0
28,0
28,0
28,0
28,0
28,0
28,0
28,0
25,0
25,0
25,0
25,0
25,0
25,0
25,0
25,0
25,0
25,0
25,0
25,0
25,0
25,0
25,0
25,0
25,0
25,0
25,0
25,0
23,0
23,0
23,0
23,0
23,0
23,0
23,0
23,0
23,0
23,0
23,0
23,0
23,0
23,0
23,0
23,0
23,0
23,0
23,0
23,0
20,0
20,0
20,0
20,0
20,0
20,0
20,0
20,0
20,0
20,0
20,0
20,0
20,0
20,0
20,0
20,0
20,0
20,0
20,0
20,0
18,0
18,0
18,0
18,0
18,0
18,0
18,0
18,0
18,0
18,0
18,0
18,0
18,0
18,0
18,0
18,0
18,0
18,0
18,0
18,0
16,0
16,0
16,0
16,0
16,0
16,0
16,0
16,0
16,0
16,0
16,0
16,0
16,0
16,0
16,0
16,0
16,0
16,0
16,0
16,0
14,0
14,0
14,0
14,0
14,0
14,0
14,0
14,0
14,0
14,0
14,0
14,0
14,0
14,0
14,0
14,0
14,0
14,0
14,0
14,0
12,0
12,0
12,0
12,0
12,0
12,0
12,0
12,0
12,0
12,0
12,0
12,0
12,0
12,0
12,0
12,0
12,0
12,0
12,0
12,0
11,0
11,0
11,0
11,0
11,0
11,0
11,0
11,0
11,0
11,0
11,0
11,0
11,0
11,0
11,0
11,0
11,0
11,0
11,0
11,0
8,0
8,0
8,0
8,0
8,0
8,0
8,0
8,0
8,0
8,0
8,0
8,0
8,0
8,0
8,0
8,0
8,0
8,0
8,0
8,0
7,0
7,0
7,0
7,0
7,0
7,0
7,0
7,0
7,0
7,0
7,0
7,0
7,0
7,0
7,0
7,0
7,0
7,0
7,0
7,0
7,0
5,0
5,0
5,0
5,0
5,0
5,0
5,0
5,0
5,0
5,0
5,0
5,0
5,0
5,0
5,0
5,0
5,0
5,0
5,0
5,0
2,0
2,0
2,0
2,0
2,0
2,0
2,0
2,0
2,0
2,0
2,0
2,0
2,0
2,0
2,0
2,0
2,0
2,0
2,0
2,0
2,0
2,0
2,0
2,0
2,0
2,0
2,0
2,0
2,0
2,0
2,0
2,0
2,0
2,0
2,0
2,0
2,0
2,0
2,0
2,0
1,0
1,0
1,0
1,0
1,0
1,0
1,0
1,0
1,0
1,0
1,0
1,0
1,0
1,0
1,0
1,0
1,0
1,0
1,0
1,0
1,0
1,0
1,0
1,0
1,0
1,0
1,0
1,0
1,0
1,0
1,0
1,0
1,0
1,0
1,0
1,0
1,0
1,0
1,0
1,0
0,0
0,0
0,0
0,0
0,0
0,0
0,0
0,0
0,0
0,0
0,0
0,0
0,0
0,0
0,0
0,0
0,0
0,0
0,0
0,0
0,0
0,0
0,0
0,0
0,0
0,0
0,0
0,0
0,0
0,0
0,0
0,0
0,0
0,0
0,0
0,0
0,0
0,0
0,0
0,0
0,0
0,0
0,0
0,0
0,0
0,0
0,0
0,0
0,0
0,0
0,0
0,0
0,0
0,0
0,0
0,0
0,0
0,0
0,0
0,0
0,0
0,0
0,0
0,0
0,0
0,0
0,0
0,0
0,0
0,0
0,0
0,0
0,0
0,0
0,0
0,0
0,0
0,0
0,0
0,0
0,0
0,0
0,0
0,0
0,0
0,0
0,0
0,0
0,0
0,0
0,0
0,0
0,0
0,0
0,0
0,0
0,0
0,0
0,0
0,0
0,0
0,0
0,0
0,0
0,0
0,0
0,0
0,0
0,0
0,0
0,0
0,0
0,0
0,0
0,0
0,0
0,0
0,0
0,0
0,0
0,0
0,0
0,0
0,0
0,0
0,0
0,0
0,0
0,0
0,0
0,0
0,0
0,0
0,0
0,0
0,0
0,0
0,0
0,0
0,0
0,0
0,0
0,0
0,0
0,0
0,0
0,0
0,0
0,0
0,0
0,0
0,0
0,0
0,0
0,0
0,0
0,0
0,0
0,0
0,0
0,0
0,0
0,0
0,0
0,0
0,0
0,0
0,0
0,0
0,0
0,0
0,0
0,0
0,0
0,0
0,0
0,0
0,0
0,0
0,0
0,0
0,0
0,0
0,0
0,0
0,0
0,0
0,0
0,0
0,0
0,0
0,0
0,0
0,0
0,0
0,0
0,0
0,0
0,0
0,0
0,0
0,0
0,0
0,0
0,0
0,0
0,0
0,0
0,0
0,0
0,0
0,0
0,0
0,0
0,0
0,0
0,0
0,0
0,0
